<?xml version="1.0" encoding="UTF-8" standalone="no"?>
<!-- Created with Inkscape (http://www.inkscape.org/) -->

<svg
   width="10mm"
   height="10mm"
   viewBox="0 0 10 10"
   version="1.1"
   id="svg5"
   inkscape:version="1.1.1 (3bf5ae0d25, 2021-09-20)"
   sodipodi:docname="beige-white-darkbrown.svg"
   xmlns:inkscape="http://www.inkscape.org/namespaces/inkscape"
   xmlns:sodipodi="http://sodipodi.sourceforge.net/DTD/sodipodi-0.dtd"
   xmlns="http://www.w3.org/2000/svg"
   xmlns:svg="http://www.w3.org/2000/svg">
  <sodipodi:namedview
     id="namedview7"
     pagecolor="#ffffff"
     bordercolor="#666666"
     borderopacity="1.0"
     inkscape:pageshadow="2"
     inkscape:pageopacity="0.0"
     inkscape:pagecheckerboard="0"
     inkscape:document-units="mm"
     showgrid="false"
     inkscape:zoom="1.3932941"
     inkscape:cx="396.18342"
     inkscape:cy="-70.336911"
     inkscape:window-width="1920"
     inkscape:window-height="986"
     inkscape:window-x="-11"
     inkscape:window-y="-11"
     inkscape:window-maximized="1"
     inkscape:current-layer="layer1" />
  <defs
     id="defs2" />
  <g
     inkscape:label="Слой 1"
     inkscape:groupmode="layer"
     id="layer1">
    <path
       id="path1703"
       style="fill:#48c9bf;fill-opacity:1;stroke-width:0.0384551"
       d="M 4.8522187,0 A 4.852196,4.7474831 0 0 0 0.6374941,2.421923 l 3.9975626,2.4439571 v 0 l 0.04284,0.02613 4.386064,-2.4761124 A 4.852196,4.7474831 0 0 0 8.4661557,1.5798071 4.852196,4.7474831 0 0 0 4.8522197,1.9e-6 Z m 4.211738,2.4158939 -4.386065,2.4761122 v 0 0 l -0.04284,-0.02613 -0.359028,4.588763 a 4.852196,4.7474831 0 0 0 0.576189,0.04034 4.852196,4.7474831 0 0 0 1.364667,-0.195798 4.852196,4.7474831 0 0 0 3.487474,-4.551728 4.852196,4.7474831 0 0 0 -0.640403,-2.33156 z M 4.2760297,9.4546431 4.6350577,4.8658801 0.6374941,2.421923 A 4.852196,4.7474831 0 0 0 0.0911717,3.8495684 4.852196,4.7474831 0 0 0 0,4.7474541 4.852196,4.7474831 0 0 0 4.2760297,9.4546431 Z" />
  </g>
</svg>
