<?xml version="1.0" encoding="UTF-8" standalone="no"?>
<!-- Created with Inkscape (http://www.inkscape.org/) -->

<svg
   width="10mm"
   height="10mm"
   viewBox="0 0 10 10"
   version="1.1"
   id="svg5"
   inkscape:version="1.1.1 (3bf5ae0d25, 2021-09-20)"
   sodipodi:docname="white-brown.svg"
   xmlns:inkscape="http://www.inkscape.org/namespaces/inkscape"
   xmlns:sodipodi="http://sodipodi.sourceforge.net/DTD/sodipodi-0.dtd"
   xmlns="http://www.w3.org/2000/svg"
   xmlns:svg="http://www.w3.org/2000/svg">
  <sodipodi:namedview
     id="namedview7"
     pagecolor="#ffffff"
     bordercolor="#666666"
     borderopacity="1.0"
     inkscape:pageshadow="2"
     inkscape:pageopacity="0.0"
     inkscape:pagecheckerboard="0"
     inkscape:document-units="mm"
     showgrid="false"
     inkscape:zoom="1.3932941"
     inkscape:cx="396.1834"
     inkscape:cy="-70.336909"
     inkscape:window-width="1920"
     inkscape:window-height="986"
     inkscape:window-x="-11"
     inkscape:window-y="-11"
     inkscape:window-maximized="1"
     inkscape:current-layer="layer1" />
  <defs
     id="defs2" />
  <g
     inkscape:label="Слой 1"
     inkscape:groupmode="layer"
     id="layer1">
    <path
       id="path1703"
       style="fill:#AE6624;fill-opacity:1;stroke-width:0.145342"
       d="M 2.9980469 8.2265625 A 18.339009 17.943243 0 0 0 2.4101562 9.1542969 A 18.339009 17.943243 0 0 0 0.34375 14.548828 A 18.339009 17.943243 0 0 0 0 17.943359 A 18.339009 17.943243 0 0 0 16.162109 35.734375 A 18.339009 17.943243 0 0 0 18.339844 35.886719 A 18.339009 17.943243 0 0 0 23.496094 35.146484 A 18.339009 17.943243 0 0 0 33.199219 28.419922 C 30.416354 26.553658 27.520904 24.61285 23.820312 22.136719 C 19.244825 19.075179 13.916424 15.515929 7.7148438 11.375 C 6.3446693 10.460105 4.45495 9.1989928 2.9980469 8.2265625 z "
       transform="scale(0.26458333)" />
    <path
       id="path937"
       style="fill:#E7E7E4;fill-opacity:1;stroke-width:0.145342"
       d="M 2.9980469 8.2265625 C 4.45495 9.1989928 6.3446693 10.460105 7.7148438 11.375 C 13.916424 15.515929 19.244825 19.075179 23.820312 22.136719 C 27.520904 24.61285 30.416354 26.553658 33.199219 28.419922 A 18.339009 17.943243 0 0 0 36.677734 17.943359 A 18.339009 17.943243 0 0 0 34.257812 9.1308594 A 18.339009 17.943243 0 0 0 31.998047 5.9707031 A 18.339009 17.943243 0 0 0 18.339844 0 A 18.339009 17.943243 0 0 0 2.9980469 8.2265625 z "
       transform="scale(0.26458333)" />
  </g>
</svg>
