# Blender MTL File: 'door1.blend'
# Material Count: 2

newmtl None
Ns 500
Ka 0.8 0.8 0.8
Kd 0.8 0.8 0.8
Ks 0.8 0.8 0.8
d 1
illum 2

newmtl wire_177027088
Ns 225.000000
Ka 1.000000 1.000000 1.000000
Kd 0.355636 0.355636 0.355636
Ks 1.000000 1.000000 1.000000
Ke 0.000000 0.000000 0.000000
Ni 1.450000
d 1.000000
illum 3
