# Blender MTL File: 'None'
# Material Count: 4

newmtl fireplace:VRayMtl22SG
Ns 225.000000
Ka 1.000000 1.000000 1.000000
Kd 0.730708 0.738740 0.605723
Ks 0.500000 0.500000 0.500000
Ke 0.000000 0.000000 0.000000
Ni 1.450000
d 1.000000
illum 2

newmtl fireplace:VRayMtl30SG
Ns 225.000000
Ka 1.000000 1.000000 1.000000
Kd 0.470064 0.305579 0.185209
Ks 0.500000 0.500000 0.500000
Ke 0.000000 0.000000 0.000000
Ni 1.450000
d 1.000000
illum 2

newmtl fireplace:VRayMtl6SG
Ns 225.000000
Ka 1.000000 1.000000 1.000000
Kd 0.196425 0.196425 0.196425
Ks 0.500000 0.500000 0.500000
Ke 0.000000 0.000000 0.000000
Ni 1.450000
d 1.000000
illum 2

newmtl fireplace:phong5SG
Ns 225.000000
Ka 1.000000 1.000000 1.000000
Kd 0.015927 0.015927 0.015927
Ks 0.500000 0.500000 0.500000
Ke 0.000000 0.000000 0.000000
Ni 1.450000
d 1.000000
illum 2
