# Blender MTL File: 'fireplace4.blend'
# Material Count: 1

newmtl wire_087225198
Ns 31.999996
Ka 1.000000 1.000000 1.000000
Kd 0.341200 0.882400 0.776500
Ks 0.350000 0.350000 0.350000
Ke 0.000000 0.000000 0.000000
Ni 1.450000
d 1.000000
illum 2
