# Blender MTL File: 'kitchen5.blend'
# Material Count: 2

newmtl wire_088144225.001
Ns 31.999996
Ka 1.000000 1.000000 1.000000
Kd 0.345100 0.564700 0.882400
Ks 0.350000 0.350000 0.350000
Ke 0.000000 0.000000 0.000000
Ni 1.450000
d 1.000000
illum 2

newmtl wire_115115115.001
Ns 31.999996
Ka 1.000000 1.000000 1.000000
Kd 0.451000 0.451000 0.451000
Ks 0.350000 0.350000 0.350000
Ke 0.000000 0.000000 0.000000
Ni 1.450000
d 1.000000
illum 2
