# Blender MTL File: 'None'
# Material Count: 4

newmtl Samuelson_8479_Nightstand_mtl_1
Ns 225.000000
Ka 1.000000 1.000000 1.000000
Kd 0.686157 0.686157 0.686157
Ks 0.500000 0.500000 0.500000
Ke 0.000000 0.000000 0.000000
Ni 1.450000
d 1.000000
illum 2

newmtl Samuelson_8479_Nightstand_mtl_2
Ns 225.000000
Ka 1.000000 1.000000 1.000000
Kd 0.344058 0.275679 0.194464
Ks 0.500000 0.500000 0.500000
Ke 0.000000 0.000000 0.000000
Ni 1.450000
d 1.000000
illum 2

newmtl Samuelson_8479_Nightstand_mtl_3
Ns 225.000000
Ka 1.000000 1.000000 1.000000
Kd 0.416910 0.316276 0.247630
Ks 0.500000 0.500000 0.500000
Ke 0.000000 0.000000 0.000000
Ni 1.450000
d 1.000000
illum 2

newmtl Samuelson_8479_Nightstand_mtl_4
Ns 225.000000
Ka 1.000000 1.000000 1.000000
Kd 0.787102 0.812400 0.637924
Ks 0.500000 0.500000 0.500000
Ke 0.000000 0.000000 0.000000
Ni 1.450000
d 1.000000
illum 2
