# Blender MTL File: 'wardrobe1.blend'
# Material Count: 2

newmtl 01_WoodTexture
Ns 728.999998
Ka 1.000000 1.000000 1.000000
Kd 0.800000 0.800000 0.800000
Ks 0.500000 0.500000 0.500000
Ke 0.000000 0.000000 0.000000
Ni 1.450000
d 1.000000
illum 2
map_Bump C:\\3D\\00_POLIIGON\\WoodQuarteredChiffon001_NRM_3K.jpg
map_Kd C:\\3D\\00_POLIIGON\\WoodQuarteredChiffon001_COL_3K.jpg
map_Ks C:\\3D\\00_POLIIGON\\WoodQuarteredChiffon001_REFL_3K.jpg

newmtl Drawer_Sink
Ns 900.000000
Ka 1.000000 1.000000 1.000000
Kd 0.800000 0.800000 0.800000
Ks 0.500000 0.500000 0.500000
Ke 0.000000 0.000000 0.000000
Ni 1.450000
d 1.000000
illum 2
